1::com.epam.LoggingExample::main::Fri Dec 06 10:42:00 EET 2019::Msg870
1::com.epam.LoggingExample::main::Fri Dec 06 10:42:00 EET 2019::Msg871
1::com.epam.LoggingExample::main::Fri Dec 06 10:42:00 EET 2019::Msg872
1::com.epam.LoggingExample::main::Fri Dec 06 10:42:00 EET 2019::Msg873
1::com.epam.LoggingExample::main::Fri Dec 06 10:42:00 EET 2019::Msg874
1::com.epam.LoggingExample::main::Fri Dec 06 10:42:00 EET 2019::Msg875
1::com.epam.LoggingExample::main::Fri Dec 06 10:42:00 EET 2019::Msg876
1::com.epam.LoggingExample::main::Fri Dec 06 10:42:00 EET 2019::Msg877
1::com.epam.LoggingExample::main::Fri Dec 06 10:42:00 EET 2019::Msg878
1::com.epam.LoggingExample::main::Fri Dec 06 10:42:00 EET 2019::Msg879
1::com.epam.LoggingExample::main::Fri Dec 06 10:42:00 EET 2019::Msg880
1::com.epam.LoggingExample::main::Fri Dec 06 10:42:00 EET 2019::Msg881
1::com.epam.LoggingExample::main::Fri Dec 06 10:42:00 EET 2019::Msg882
1::com.epam.LoggingExample::main::Fri Dec 06 10:42:00 EET 2019::Msg883
1::com.epam.LoggingExample::main::Fri Dec 06 10:42:00 EET 2019::Msg884
1::com.epam.LoggingExample::main::Fri Dec 06 10:42:00 EET 2019::Msg885
1::com.epam.LoggingExample::main::Fri Dec 06 10:42:00 EET 2019::Msg886
1::com.epam.LoggingExample::main::Fri Dec 06 10:42:00 EET 2019::Msg887
1::com.epam.LoggingExample::main::Fri Dec 06 10:42:00 EET 2019::Msg888
1::com.epam.LoggingExample::main::Fri Dec 06 10:42:00 EET 2019::Msg889
1::com.epam.LoggingExample::main::Fri Dec 06 10:42:00 EET 2019::Msg890
1::com.epam.LoggingExample::main::Fri Dec 06 10:42:00 EET 2019::Msg891
1::com.epam.LoggingExample::main::Fri Dec 06 10:42:00 EET 2019::Msg892
1::com.epam.LoggingExample::main::Fri Dec 06 10:42:00 EET 2019::Msg893
1::com.epam.LoggingExample::main::Fri Dec 06 10:42:00 EET 2019::Msg894
1::com.epam.LoggingExample::main::Fri Dec 06 10:42:00 EET 2019::Msg895
1::com.epam.LoggingExample::main::Fri Dec 06 10:42:00 EET 2019::Msg896
1::com.epam.LoggingExample::main::Fri Dec 06 10:42:00 EET 2019::Msg897
1::com.epam.LoggingExample::main::Fri Dec 06 10:42:00 EET 2019::Msg898
