1::com.epam.LoggingExample::main::Fri Dec 06 10:42:00 EET 2019::Msg522
1::com.epam.LoggingExample::main::Fri Dec 06 10:42:00 EET 2019::Msg523
1::com.epam.LoggingExample::main::Fri Dec 06 10:42:00 EET 2019::Msg524
1::com.epam.LoggingExample::main::Fri Dec 06 10:42:00 EET 2019::Msg525
1::com.epam.LoggingExample::main::Fri Dec 06 10:42:00 EET 2019::Msg526
1::com.epam.LoggingExample::main::Fri Dec 06 10:42:00 EET 2019::Msg527
1::com.epam.LoggingExample::main::Fri Dec 06 10:42:00 EET 2019::Msg528
1::com.epam.LoggingExample::main::Fri Dec 06 10:42:00 EET 2019::Msg529
1::com.epam.LoggingExample::main::Fri Dec 06 10:42:00 EET 2019::Msg530
1::com.epam.LoggingExample::main::Fri Dec 06 10:42:00 EET 2019::Msg531
1::com.epam.LoggingExample::main::Fri Dec 06 10:42:00 EET 2019::Msg532
1::com.epam.LoggingExample::main::Fri Dec 06 10:42:00 EET 2019::Msg533
1::com.epam.LoggingExample::main::Fri Dec 06 10:42:00 EET 2019::Msg534
1::com.epam.LoggingExample::main::Fri Dec 06 10:42:00 EET 2019::Msg535
1::com.epam.LoggingExample::main::Fri Dec 06 10:42:00 EET 2019::Msg536
1::com.epam.LoggingExample::main::Fri Dec 06 10:42:00 EET 2019::Msg537
1::com.epam.LoggingExample::main::Fri Dec 06 10:42:00 EET 2019::Msg538
1::com.epam.LoggingExample::main::Fri Dec 06 10:42:00 EET 2019::Msg539
1::com.epam.LoggingExample::main::Fri Dec 06 10:42:00 EET 2019::Msg540
1::com.epam.LoggingExample::main::Fri Dec 06 10:42:00 EET 2019::Msg541
1::com.epam.LoggingExample::main::Fri Dec 06 10:42:00 EET 2019::Msg542
1::com.epam.LoggingExample::main::Fri Dec 06 10:42:00 EET 2019::Msg543
1::com.epam.LoggingExample::main::Fri Dec 06 10:42:00 EET 2019::Msg544
1::com.epam.LoggingExample::main::Fri Dec 06 10:42:00 EET 2019::Msg545
1::com.epam.LoggingExample::main::Fri Dec 06 10:42:00 EET 2019::Msg546
1::com.epam.LoggingExample::main::Fri Dec 06 10:42:00 EET 2019::Msg547
1::com.epam.LoggingExample::main::Fri Dec 06 10:42:00 EET 2019::Msg548
1::com.epam.LoggingExample::main::Fri Dec 06 10:42:00 EET 2019::Msg549
1::com.epam.LoggingExample::main::Fri Dec 06 10:42:00 EET 2019::Msg550
