1::com.epam.LoggingExample::main::Fri Dec 06 10:42:00 EET 2019::Msg899
1::com.epam.LoggingExample::main::Fri Dec 06 10:42:00 EET 2019::Msg900
1::com.epam.LoggingExample::main::Fri Dec 06 10:42:00 EET 2019::Msg901
1::com.epam.LoggingExample::main::Fri Dec 06 10:42:00 EET 2019::Msg902
1::com.epam.LoggingExample::main::Fri Dec 06 10:42:00 EET 2019::Msg903
1::com.epam.LoggingExample::main::Fri Dec 06 10:42:00 EET 2019::Msg904
1::com.epam.LoggingExample::main::Fri Dec 06 10:42:00 EET 2019::Msg905
1::com.epam.LoggingExample::main::Fri Dec 06 10:42:00 EET 2019::Msg906
1::com.epam.LoggingExample::main::Fri Dec 06 10:42:00 EET 2019::Msg907
1::com.epam.LoggingExample::main::Fri Dec 06 10:42:00 EET 2019::Msg908
1::com.epam.LoggingExample::main::Fri Dec 06 10:42:00 EET 2019::Msg909
1::com.epam.LoggingExample::main::Fri Dec 06 10:42:00 EET 2019::Msg910
1::com.epam.LoggingExample::main::Fri Dec 06 10:42:00 EET 2019::Msg911
1::com.epam.LoggingExample::main::Fri Dec 06 10:42:00 EET 2019::Msg912
1::com.epam.LoggingExample::main::Fri Dec 06 10:42:00 EET 2019::Msg913
1::com.epam.LoggingExample::main::Fri Dec 06 10:42:00 EET 2019::Msg914
1::com.epam.LoggingExample::main::Fri Dec 06 10:42:00 EET 2019::Msg915
1::com.epam.LoggingExample::main::Fri Dec 06 10:42:00 EET 2019::Msg916
1::com.epam.LoggingExample::main::Fri Dec 06 10:42:00 EET 2019::Msg917
1::com.epam.LoggingExample::main::Fri Dec 06 10:42:00 EET 2019::Msg918
1::com.epam.LoggingExample::main::Fri Dec 06 10:42:00 EET 2019::Msg919
1::com.epam.LoggingExample::main::Fri Dec 06 10:42:00 EET 2019::Msg920
1::com.epam.LoggingExample::main::Fri Dec 06 10:42:00 EET 2019::Msg921
1::com.epam.LoggingExample::main::Fri Dec 06 10:42:00 EET 2019::Msg922
1::com.epam.LoggingExample::main::Fri Dec 06 10:42:00 EET 2019::Msg923
1::com.epam.LoggingExample::main::Fri Dec 06 10:42:00 EET 2019::Msg924
1::com.epam.LoggingExample::main::Fri Dec 06 10:42:00 EET 2019::Msg925
1::com.epam.LoggingExample::main::Fri Dec 06 10:42:00 EET 2019::Msg926
1::com.epam.LoggingExample::main::Fri Dec 06 10:42:00 EET 2019::Msg927
