1::com.epam.LoggingExample::main::Fri Dec 06 10:42:00 EET 2019::Msg957
1::com.epam.LoggingExample::main::Fri Dec 06 10:42:00 EET 2019::Msg958
1::com.epam.LoggingExample::main::Fri Dec 06 10:42:00 EET 2019::Msg959
1::com.epam.LoggingExample::main::Fri Dec 06 10:42:00 EET 2019::Msg960
1::com.epam.LoggingExample::main::Fri Dec 06 10:42:00 EET 2019::Msg961
1::com.epam.LoggingExample::main::Fri Dec 06 10:42:00 EET 2019::Msg962
1::com.epam.LoggingExample::main::Fri Dec 06 10:42:00 EET 2019::Msg963
1::com.epam.LoggingExample::main::Fri Dec 06 10:42:00 EET 2019::Msg964
1::com.epam.LoggingExample::main::Fri Dec 06 10:42:00 EET 2019::Msg965
1::com.epam.LoggingExample::main::Fri Dec 06 10:42:00 EET 2019::Msg966
1::com.epam.LoggingExample::main::Fri Dec 06 10:42:00 EET 2019::Msg967
1::com.epam.LoggingExample::main::Fri Dec 06 10:42:00 EET 2019::Msg968
1::com.epam.LoggingExample::main::Fri Dec 06 10:42:00 EET 2019::Msg969
1::com.epam.LoggingExample::main::Fri Dec 06 10:42:00 EET 2019::Msg970
1::com.epam.LoggingExample::main::Fri Dec 06 10:42:00 EET 2019::Msg971
1::com.epam.LoggingExample::main::Fri Dec 06 10:42:00 EET 2019::Msg972
1::com.epam.LoggingExample::main::Fri Dec 06 10:42:00 EET 2019::Msg973
1::com.epam.LoggingExample::main::Fri Dec 06 10:42:00 EET 2019::Msg974
1::com.epam.LoggingExample::main::Fri Dec 06 10:42:00 EET 2019::Msg975
1::com.epam.LoggingExample::main::Fri Dec 06 10:42:00 EET 2019::Msg976
1::com.epam.LoggingExample::main::Fri Dec 06 10:42:00 EET 2019::Msg977
1::com.epam.LoggingExample::main::Fri Dec 06 10:42:00 EET 2019::Msg978
1::com.epam.LoggingExample::main::Fri Dec 06 10:42:00 EET 2019::Msg979
1::com.epam.LoggingExample::main::Fri Dec 06 10:42:00 EET 2019::Msg980
1::com.epam.LoggingExample::main::Fri Dec 06 10:42:00 EET 2019::Msg981
1::com.epam.LoggingExample::main::Fri Dec 06 10:42:00 EET 2019::Msg982
1::com.epam.LoggingExample::main::Fri Dec 06 10:42:00 EET 2019::Msg983
1::com.epam.LoggingExample::main::Fri Dec 06 10:42:00 EET 2019::Msg984
1::com.epam.LoggingExample::main::Fri Dec 06 10:42:00 EET 2019::Msg985
