1::com.epam.LoggingExample::main::Fri Dec 06 10:42:00 EET 2019::Msg783
1::com.epam.LoggingExample::main::Fri Dec 06 10:42:00 EET 2019::Msg784
1::com.epam.LoggingExample::main::Fri Dec 06 10:42:00 EET 2019::Msg785
1::com.epam.LoggingExample::main::Fri Dec 06 10:42:00 EET 2019::Msg786
1::com.epam.LoggingExample::main::Fri Dec 06 10:42:00 EET 2019::Msg787
1::com.epam.LoggingExample::main::Fri Dec 06 10:42:00 EET 2019::Msg788
1::com.epam.LoggingExample::main::Fri Dec 06 10:42:00 EET 2019::Msg789
1::com.epam.LoggingExample::main::Fri Dec 06 10:42:00 EET 2019::Msg790
1::com.epam.LoggingExample::main::Fri Dec 06 10:42:00 EET 2019::Msg791
1::com.epam.LoggingExample::main::Fri Dec 06 10:42:00 EET 2019::Msg792
1::com.epam.LoggingExample::main::Fri Dec 06 10:42:00 EET 2019::Msg793
1::com.epam.LoggingExample::main::Fri Dec 06 10:42:00 EET 2019::Msg794
1::com.epam.LoggingExample::main::Fri Dec 06 10:42:00 EET 2019::Msg795
1::com.epam.LoggingExample::main::Fri Dec 06 10:42:00 EET 2019::Msg796
1::com.epam.LoggingExample::main::Fri Dec 06 10:42:00 EET 2019::Msg797
1::com.epam.LoggingExample::main::Fri Dec 06 10:42:00 EET 2019::Msg798
1::com.epam.LoggingExample::main::Fri Dec 06 10:42:00 EET 2019::Msg799
1::com.epam.LoggingExample::main::Fri Dec 06 10:42:00 EET 2019::Msg800
1::com.epam.LoggingExample::main::Fri Dec 06 10:42:00 EET 2019::Msg801
1::com.epam.LoggingExample::main::Fri Dec 06 10:42:00 EET 2019::Msg802
1::com.epam.LoggingExample::main::Fri Dec 06 10:42:00 EET 2019::Msg803
1::com.epam.LoggingExample::main::Fri Dec 06 10:42:00 EET 2019::Msg804
1::com.epam.LoggingExample::main::Fri Dec 06 10:42:00 EET 2019::Msg805
1::com.epam.LoggingExample::main::Fri Dec 06 10:42:00 EET 2019::Msg806
1::com.epam.LoggingExample::main::Fri Dec 06 10:42:00 EET 2019::Msg807
1::com.epam.LoggingExample::main::Fri Dec 06 10:42:00 EET 2019::Msg808
1::com.epam.LoggingExample::main::Fri Dec 06 10:42:00 EET 2019::Msg809
1::com.epam.LoggingExample::main::Fri Dec 06 10:42:00 EET 2019::Msg810
1::com.epam.LoggingExample::main::Fri Dec 06 10:42:00 EET 2019::Msg811
